{
  "type": "service_account",
  "project_id": "callfinder-216523",
  "private_key_id": "931284887dc74d739702c2903f8ea99c48ddbb06",
  "private_key": "-----BEGIN PRIVATE KEY-----\nMIIEvgIBADANBgkqhkiG9w0BAQEFAASCBKgwggSkAgEAAoIBAQCixfhUGaMdEw9H\nH5Rby+xuez/KFdq2GwsXTFqwfpsh4mfMU9UJ/Ezc2/FbZn2fC2jiG9zk9KzgROpT\n9CGsfiE25kfhypx8FpR1EG77Ib/6lqM9QkmZkndugdhCGDSwwq7c+HpHEsHQ/4dj\nVFA6LM1eEtkIZzeZwWNcezFxArcJDOn1ec4cBztJANpc2ZCts7jhw+TlmONwajPr\n+enkMUhbMLikHnLlsqYW2LHq807OXNklLXWEDVTU/CBmcxCs0SnstHUF935AIRsQ\nhyH7tjCyS9zgUruUidb08x8rFxlj9tt0W3LDK/tVzSS9hc26d5tk9P4iPxZroMyp\nVp/YEkbbAgMBAAECggEABTHTNH/i9D0U+jyYQ/u0jmwRg5YB9ljTmElABazsr36l\nuGAehuSN4WiFgdi5/pbjIIAqIwZp8/hPECHU50fZMILV3W9VYiJoV3oQSKRxl4Iy\nMHTKm4OQmy66o5VZLSDxaqzlXhpLpCtbe0CIFOs0HKH2Wi3NGPOSg7OMxuICzF+X\nkIeODnljbCMgD/JhSR64NPdKVkUhqkq1s9aQWEeoY9rbbO55KHgUbMPScK91ulZv\n7aHzvYg0rX0LcXHYx02xwTsh/ZgUD9mkxv2DPglwL5aCa9b9PlE5AUXRF1Bzoeeg\n3ZsbYXd5xR4LwrLXx23mQ1u0YA+ocIs0ei0ryR4wNQKBgQDcZ6JANDKTweAqGdDc\nSbVkrZsiYohWnd4FZTc+yi/S9C4C7EYC90TPBLdLScWQ4+7hBXIkzOREy89ssCso\n0xn3bIYUgN7KN5ZswP3XPMVpr+HH1KHWwe5pyPMr9PHf2kqg9BMTvk3TdV0s5GOQ\nMmTLwD4Y/WnssnmuqDv93mWQzwKBgQC9D6H+Y0csJTOi2aeNOPgbkimzsbP2Vz6k\nVKqIe0CYpu82wPoGbfDh7BhRdBYhFa2GCdYym2HUpeF+1iFx1pkEu2/F1umfDOxH\nihG9XhmSEXIZKh5PNk5ltL4di8JU+RYSUz4nAwyjjPukR7Wsk46oE5zq7ORHgMUS\nc7aylhr0NQKBgQDFebke62Wxi5DsR8shxIzY0s9fhIcBjFqj3OcdxAwLZ6peBhJI\nkAG/tksAEu4H/qFGThnSLR4NIcsMZ9+TqWjnjf2oGzsCVcHaWSRWl+WM5wBVigcj\nIwkZEOoHpWSdm7kn8uew1d5nKw27rjoitXQoNmus+kjQwaxSt/tgX8YCcwKBgQCf\nLuZqVhS66qfLWg9lLK5aKHrMPbcUlui7XD4po/0DiqqnI1xgxXioAC2Jh4CKYsIz\ntVyQR5vbe7+dF5YZT2KPRXIa1ZTmwe6/XVUKaIyHHAFBhuD2OPdRUxkvr1j0SrV2\nwHf4SOz/V9kYvPgOUj8u7TSV6NdcDOPhYWRWgWQ4cQKBgFZLkTsF74pDUFjTBa8N\ntakV81rr6gTMEBUQuj5ixxFB0/FyuFb14F3Lqe1i8ggIKjJOqhV0DGXSlUxO7dbj\nQKUbb/DyWV5tz+0yzeYFI5qUtEFfg+/Uf8yT424MJ7bthYDISGBCLzFJdJ8qo/p7\n35dQMXSFKOSyiZHc98tW7XvH\n-----END PRIVATE KEY-----\n",
  "client_email": "starting-account-y225uc3wan0o@callfinder-216523.iam.gserviceaccount.com",
  "client_id": "112975731509673697783",
  "auth_uri": "https://accounts.google.com/o/oauth2/auth",
  "token_uri": "https://oauth2.googleapis.com/token",
  "auth_provider_x509_cert_url": "https://www.googleapis.com/oauth2/v1/certs",
  "client_x509_cert_url": "https://www.googleapis.com/robot/v1/metadata/x509/starting-account-y225uc3wan0o%40callfinder-216523.iam.gserviceaccount.com"
}
